Module 04: Data Wrangling with dplyr
…
.panel1-my_mtcars2-auto[

```r
mtcars %>%
  select(cyl, mpg, hp) %>%
  arrange(hp) %>%
* group_by(cyl)
```
]
 
.panel2-my_mtcars2-auto[

```
# A tibble: 32 × 3
# Groups:   cyl [3]
     cyl   mpg    hp
   <dbl> <dbl> <dbl>
 1     4  30.4    52
 2     4  24.4    62
 3     4  33.9    65
 4     4  32.4    66
 5     4  27.3    66
 6     4  26      91
 7     4  22.8    93
 8     4  22.8    95
 9     4  21.5    97
10     6  18.1   105
# … with 22 more rows
# ℹ Use `print(n = ...)` to see more rows
```
…
